EESchema Schematic File Version 4
EELAYER 26 0
EELAYER END
$Descr A4 11693 8268
encoding utf-8
Sheet 2 4
Title "Ear Controller Prototype"
Date "2018-11-07"
Rev "0.1"
Comp "Feliform Labs"
Comment1 "Licensed under the Solderpad Hardware License, version 2.0"
Comment2 "Copyright 2018 Feliform Labs"
Comment3 ""
Comment4 ""
$EndDescr
$Comp
L power:+3.3VA #PWR0103
U 1 1 5BD0DE35
P 1550 2425
AR Path="/5BD0DB90/5BD0DE35" Ref="#PWR0103"  Part="1" 
AR Path="/5BD15EBB/5BD0DE35" Ref="#PWR0121"  Part="1" 
AR Path="/5BD1F10A/5BD0DE35" Ref="#PWR0131"  Part="1" 
AR Path="/5BD209C2/5BD0DE35" Ref="#PWR0141"  Part="1" 
AR Path="/5BD29519/5BD0DE35" Ref="#PWR0151"  Part="1" 
AR Path="/5BD2955A/5BD0DE35" Ref="#PWR0161"  Part="1" 
AR Path="/5BD2955E/5BD0DE35" Ref="#PWR0171"  Part="1" 
AR Path="/5BD29562/5BD0DE35" Ref="#PWR0181"  Part="1" 
F 0 "#PWR0103" H 1550 2275 50  0001 C CNN
F 1 "+3.3VA" H 1565 2598 50  0000 C CNN
F 2 "" H 1550 2425 50  0001 C CNN
F 3 "" H 1550 2425 50  0001 C CNN
	1    1550 2425
	1    0    0    -1  
$EndComp
$Comp
L Device:R R201
U 1 1 5BD0DEF4
P 1550 2675
AR Path="/5BD0DB90/5BD0DEF4" Ref="R201"  Part="1" 
AR Path="/5BD15EBB/5BD0DEF4" Ref="R401"  Part="1" 
AR Path="/5BD1F10A/5BD0DEF4" Ref="R501"  Part="1" 
AR Path="/5BD209C2/5BD0DEF4" Ref="R601"  Part="1" 
AR Path="/5BD29519/5BD0DEF4" Ref="R701"  Part="1" 
AR Path="/5BD2955A/5BD0DEF4" Ref="R801"  Part="1" 
AR Path="/5BD2955E/5BD0DEF4" Ref="R901"  Part="1" 
AR Path="/5BD29562/5BD0DEF4" Ref="R1001"  Part="1" 
F 0 "R201" H 1620 2721 50  0000 L CNN
F 1 "2.2 k" H 1620 2630 50  0000 L CNN
F 2 "Resistor_SMD:R_0603_1608Metric" V 1480 2675 50  0001 C CNN
F 3 "~" H 1550 2675 50  0001 C CNN
	1    1550 2675
	1    0    0    -1  
$EndComp
Wire Wire Line
	1325 3050 1550 3050
Wire Wire Line
	1550 3050 1550 2825
Wire Wire Line
	1550 2525 1550 2425
$Comp
L Device:C C201
U 1 1 5BD0E05F
P 1925 3050
AR Path="/5BD0DB90/5BD0E05F" Ref="C201"  Part="1" 
AR Path="/5BD15EBB/5BD0E05F" Ref="C401"  Part="1" 
AR Path="/5BD1F10A/5BD0E05F" Ref="C501"  Part="1" 
AR Path="/5BD209C2/5BD0E05F" Ref="C601"  Part="1" 
AR Path="/5BD29519/5BD0E05F" Ref="C701"  Part="1" 
AR Path="/5BD2955A/5BD0E05F" Ref="C801"  Part="1" 
AR Path="/5BD2955E/5BD0E05F" Ref="C901"  Part="1" 
AR Path="/5BD29562/5BD0E05F" Ref="C1001"  Part="1" 
F 0 "C201" V 1673 3050 50  0000 C CNN
F 1 "1 uF" V 1764 3050 50  0000 C CNN
F 2 "Capacitor_SMD:C_0603_1608Metric" H 1963 2900 50  0001 C CNN
F 3 "~" H 1925 3050 50  0001 C CNN
	1    1925 3050
	0    1    1    0   
$EndComp
$Comp
L Device:R R202
U 1 1 5BD0E13A
P 2375 3050
AR Path="/5BD0DB90/5BD0E13A" Ref="R202"  Part="1" 
AR Path="/5BD15EBB/5BD0E13A" Ref="R402"  Part="1" 
AR Path="/5BD1F10A/5BD0E13A" Ref="R502"  Part="1" 
AR Path="/5BD209C2/5BD0E13A" Ref="R602"  Part="1" 
AR Path="/5BD29519/5BD0E13A" Ref="R702"  Part="1" 
AR Path="/5BD2955A/5BD0E13A" Ref="R802"  Part="1" 
AR Path="/5BD2955E/5BD0E13A" Ref="R902"  Part="1" 
AR Path="/5BD29562/5BD0E13A" Ref="R1002"  Part="1" 
F 0 "R202" V 2168 3050 50  0000 C CNN
F 1 "1 k" V 2259 3050 50  0000 C CNN
F 2 "Resistor_SMD:R_0603_1608Metric" V 2305 3050 50  0001 C CNN
F 3 "~" H 2375 3050 50  0001 C CNN
	1    2375 3050
	0    1    1    0   
$EndComp
Wire Wire Line
	1550 3050 1775 3050
Connection ~ 1550 3050
Wire Wire Line
	2075 3050 2225 3050
Wire Wire Line
	2525 3050 2675 3050
$Comp
L Device:R R203
U 1 1 5BD0ED8F
P 3175 2625
AR Path="/5BD0DB90/5BD0ED8F" Ref="R203"  Part="1" 
AR Path="/5BD15EBB/5BD0ED8F" Ref="R403"  Part="1" 
AR Path="/5BD1F10A/5BD0ED8F" Ref="R503"  Part="1" 
AR Path="/5BD209C2/5BD0ED8F" Ref="R603"  Part="1" 
AR Path="/5BD29519/5BD0ED8F" Ref="R703"  Part="1" 
AR Path="/5BD2955A/5BD0ED8F" Ref="R803"  Part="1" 
AR Path="/5BD2955E/5BD0ED8F" Ref="R903"  Part="1" 
AR Path="/5BD29562/5BD0ED8F" Ref="R1003"  Part="1" 
F 0 "R203" H 3245 2671 50  0000 L CNN
F 1 "10 k" H 3245 2580 50  0000 L CNN
F 2 "Resistor_SMD:R_0603_1608Metric" V 3105 2625 50  0001 C CNN
F 3 "~" H 3175 2625 50  0001 C CNN
	1    3175 2625
	1    0    0    -1  
$EndComp
$Comp
L Device:R R204
U 1 1 5BD0EF39
P 3175 3375
AR Path="/5BD0DB90/5BD0EF39" Ref="R204"  Part="1" 
AR Path="/5BD15EBB/5BD0EF39" Ref="R404"  Part="1" 
AR Path="/5BD1F10A/5BD0EF39" Ref="R504"  Part="1" 
AR Path="/5BD209C2/5BD0EF39" Ref="R604"  Part="1" 
AR Path="/5BD29519/5BD0EF39" Ref="R704"  Part="1" 
AR Path="/5BD2955A/5BD0EF39" Ref="R804"  Part="1" 
AR Path="/5BD2955E/5BD0EF39" Ref="R904"  Part="1" 
AR Path="/5BD29562/5BD0EF39" Ref="R1004"  Part="1" 
F 0 "R204" H 3245 3421 50  0000 L CNN
F 1 "10 k" H 3245 3330 50  0000 L CNN
F 2 "Resistor_SMD:R_0603_1608Metric" V 3105 3375 50  0001 C CNN
F 3 "~" H 3175 3375 50  0001 C CNN
	1    3175 3375
	1    0    0    -1  
$EndComp
$Comp
L power:+3.3VA #PWR0104
U 1 1 5BD0EFA9
P 3175 2425
AR Path="/5BD0DB90/5BD0EFA9" Ref="#PWR0104"  Part="1" 
AR Path="/5BD15EBB/5BD0EFA9" Ref="#PWR0122"  Part="1" 
AR Path="/5BD1F10A/5BD0EFA9" Ref="#PWR0132"  Part="1" 
AR Path="/5BD209C2/5BD0EFA9" Ref="#PWR0142"  Part="1" 
AR Path="/5BD29519/5BD0EFA9" Ref="#PWR0152"  Part="1" 
AR Path="/5BD2955A/5BD0EFA9" Ref="#PWR0162"  Part="1" 
AR Path="/5BD2955E/5BD0EFA9" Ref="#PWR0172"  Part="1" 
AR Path="/5BD29562/5BD0EFA9" Ref="#PWR0182"  Part="1" 
F 0 "#PWR0104" H 3175 2275 50  0001 C CNN
F 1 "+3.3VA" H 3190 2598 50  0000 C CNN
F 2 "" H 3175 2425 50  0001 C CNN
F 3 "" H 3175 2425 50  0001 C CNN
	1    3175 2425
	1    0    0    -1  
$EndComp
$Comp
L power:GNDA #PWR0105
U 1 1 5BD0EFCA
P 3175 3650
AR Path="/5BD0DB90/5BD0EFCA" Ref="#PWR0105"  Part="1" 
AR Path="/5BD15EBB/5BD0EFCA" Ref="#PWR0123"  Part="1" 
AR Path="/5BD1F10A/5BD0EFCA" Ref="#PWR0133"  Part="1" 
AR Path="/5BD209C2/5BD0EFCA" Ref="#PWR0143"  Part="1" 
AR Path="/5BD29519/5BD0EFCA" Ref="#PWR0153"  Part="1" 
AR Path="/5BD2955A/5BD0EFCA" Ref="#PWR0163"  Part="1" 
AR Path="/5BD2955E/5BD0EFCA" Ref="#PWR0173"  Part="1" 
AR Path="/5BD29562/5BD0EFCA" Ref="#PWR0183"  Part="1" 
F 0 "#PWR0105" H 3175 3400 50  0001 C CNN
F 1 "GNDA" H 3180 3477 50  0000 C CNN
F 2 "" H 3175 3650 50  0001 C CNN
F 3 "" H 3175 3650 50  0001 C CNN
	1    3175 3650
	1    0    0    -1  
$EndComp
Wire Wire Line
	3175 3650 3175 3525
Wire Wire Line
	3175 3225 3175 2850
Wire Wire Line
	3175 2850 3575 2850
Wire Wire Line
	3175 2850 3175 2775
Connection ~ 3175 2850
Wire Wire Line
	3175 2475 3175 2425
$Comp
L power:+3.3VA #PWR0106
U 1 1 5BD0FD93
P 3775 2650
AR Path="/5BD0DB90/5BD0FD93" Ref="#PWR0106"  Part="1" 
AR Path="/5BD15EBB/5BD0FD93" Ref="#PWR0124"  Part="1" 
AR Path="/5BD1F10A/5BD0FD93" Ref="#PWR0134"  Part="1" 
AR Path="/5BD209C2/5BD0FD93" Ref="#PWR0144"  Part="1" 
AR Path="/5BD29519/5BD0FD93" Ref="#PWR0154"  Part="1" 
AR Path="/5BD2955A/5BD0FD93" Ref="#PWR0164"  Part="1" 
AR Path="/5BD2955E/5BD0FD93" Ref="#PWR0174"  Part="1" 
AR Path="/5BD29562/5BD0FD93" Ref="#PWR0184"  Part="1" 
F 0 "#PWR0106" H 3775 2500 50  0001 C CNN
F 1 "+3.3VA" H 3790 2823 50  0000 C CNN
F 2 "" H 3775 2650 50  0001 C CNN
F 3 "" H 3775 2650 50  0001 C CNN
	1    3775 2650
	1    0    0    -1  
$EndComp
$Comp
L power:GNDA #PWR0107
U 1 1 5BD0FDB4
P 3775 3250
AR Path="/5BD0DB90/5BD0FDB4" Ref="#PWR0107"  Part="1" 
AR Path="/5BD15EBB/5BD0FDB4" Ref="#PWR0125"  Part="1" 
AR Path="/5BD1F10A/5BD0FDB4" Ref="#PWR0135"  Part="1" 
AR Path="/5BD209C2/5BD0FDB4" Ref="#PWR0145"  Part="1" 
AR Path="/5BD29519/5BD0FDB4" Ref="#PWR0155"  Part="1" 
AR Path="/5BD2955A/5BD0FDB4" Ref="#PWR0165"  Part="1" 
AR Path="/5BD2955E/5BD0FDB4" Ref="#PWR0175"  Part="1" 
AR Path="/5BD29562/5BD0FDB4" Ref="#PWR0185"  Part="1" 
F 0 "#PWR0107" H 3775 3000 50  0001 C CNN
F 1 "GNDA" H 3780 3077 50  0000 C CNN
F 2 "" H 3775 3250 50  0001 C CNN
F 3 "" H 3775 3250 50  0001 C CNN
	1    3775 3250
	1    0    0    -1  
$EndComp
$Comp
L Device:C C202
U 1 1 5BD0FFF0
P 4450 2950
AR Path="/5BD0DB90/5BD0FFF0" Ref="C202"  Part="1" 
AR Path="/5BD15EBB/5BD0FFF0" Ref="C402"  Part="1" 
AR Path="/5BD1F10A/5BD0FFF0" Ref="C502"  Part="1" 
AR Path="/5BD209C2/5BD0FFF0" Ref="C602"  Part="1" 
AR Path="/5BD29519/5BD0FFF0" Ref="C702"  Part="1" 
AR Path="/5BD2955A/5BD0FFF0" Ref="C802"  Part="1" 
AR Path="/5BD2955E/5BD0FFF0" Ref="C902"  Part="1" 
AR Path="/5BD29562/5BD0FFF0" Ref="C1002"  Part="1" 
F 0 "C202" V 4198 2950 50  0000 C CNN
F 1 "1 uF" V 4289 2950 50  0000 C CNN
F 2 "Capacitor_SMD:C_0603_1608Metric" H 4488 2800 50  0001 C CNN
F 3 "~" H 4450 2950 50  0001 C CNN
	1    4450 2950
	0    1    1    0   
$EndComp
Wire Wire Line
	4300 2950 4225 2950
Text Notes 3325 1525 0    100  ~ 0
Preamplifier
Text Notes 5225 1525 0    100  ~ 0
Peak detector
$Comp
L Device:R R207
U 1 1 5BD10502
P 4775 2950
AR Path="/5BD0DB90/5BD10502" Ref="R207"  Part="1" 
AR Path="/5BD15EBB/5BD10502" Ref="R407"  Part="1" 
AR Path="/5BD1F10A/5BD10502" Ref="R507"  Part="1" 
AR Path="/5BD209C2/5BD10502" Ref="R607"  Part="1" 
AR Path="/5BD29519/5BD10502" Ref="R707"  Part="1" 
AR Path="/5BD2955A/5BD10502" Ref="R807"  Part="1" 
AR Path="/5BD2955E/5BD10502" Ref="R907"  Part="1" 
AR Path="/5BD29562/5BD10502" Ref="R1007"  Part="1" 
F 0 "R207" V 4568 2950 50  0000 C CNN
F 1 "10 k" V 4659 2950 50  0000 C CNN
F 2 "Resistor_SMD:R_0603_1608Metric" V 4705 2950 50  0001 C CNN
F 3 "~" H 4775 2950 50  0001 C CNN
	1    4775 2950
	0    1    1    0   
$EndComp
Wire Wire Line
	4600 2950 4625 2950
Wire Wire Line
	4925 2950 5050 2950
$Comp
L power:GNDA #PWR0108
U 1 1 5BD1074E
P 5425 3075
AR Path="/5BD0DB90/5BD1074E" Ref="#PWR0108"  Part="1" 
AR Path="/5BD15EBB/5BD1074E" Ref="#PWR0126"  Part="1" 
AR Path="/5BD1F10A/5BD1074E" Ref="#PWR0136"  Part="1" 
AR Path="/5BD209C2/5BD1074E" Ref="#PWR0146"  Part="1" 
AR Path="/5BD29519/5BD1074E" Ref="#PWR0156"  Part="1" 
AR Path="/5BD2955A/5BD1074E" Ref="#PWR0166"  Part="1" 
AR Path="/5BD2955E/5BD1074E" Ref="#PWR0176"  Part="1" 
AR Path="/5BD29562/5BD1074E" Ref="#PWR0186"  Part="1" 
F 0 "#PWR0108" H 5425 2825 50  0001 C CNN
F 1 "GNDA" H 5430 2902 50  0000 C CNN
F 2 "" H 5425 3075 50  0001 C CNN
F 3 "" H 5425 3075 50  0001 C CNN
	1    5425 3075
	1    0    0    -1  
$EndComp
Wire Wire Line
	5425 3075 5425 2750
Wire Wire Line
	5425 2750 5450 2750
$Comp
L Device:R R208
U 1 1 5BD1087B
P 5750 1875
AR Path="/5BD0DB90/5BD1087B" Ref="R208"  Part="1" 
AR Path="/5BD15EBB/5BD1087B" Ref="R408"  Part="1" 
AR Path="/5BD1F10A/5BD1087B" Ref="R508"  Part="1" 
AR Path="/5BD209C2/5BD1087B" Ref="R608"  Part="1" 
AR Path="/5BD29519/5BD1087B" Ref="R708"  Part="1" 
AR Path="/5BD2955A/5BD1087B" Ref="R808"  Part="1" 
AR Path="/5BD2955E/5BD1087B" Ref="R908"  Part="1" 
AR Path="/5BD29562/5BD1087B" Ref="R1008"  Part="1" 
F 0 "R208" V 5543 1875 50  0000 C CNN
F 1 "22 k" V 5634 1875 50  0000 C CNN
F 2 "Resistor_SMD:R_0603_1608Metric" V 5680 1875 50  0001 C CNN
F 3 "~" H 5750 1875 50  0001 C CNN
	1    5750 1875
	0    1    1    0   
$EndComp
$Comp
L Device:D D201
U 1 1 5BD109D7
P 5750 2225
AR Path="/5BD0DB90/5BD109D7" Ref="D201"  Part="1" 
AR Path="/5BD15EBB/5BD109D7" Ref="D401"  Part="1" 
AR Path="/5BD1F10A/5BD109D7" Ref="D501"  Part="1" 
AR Path="/5BD209C2/5BD109D7" Ref="D601"  Part="1" 
AR Path="/5BD29519/5BD109D7" Ref="D701"  Part="1" 
AR Path="/5BD2955A/5BD109D7" Ref="D801"  Part="1" 
AR Path="/5BD2955E/5BD109D7" Ref="D901"  Part="1" 
AR Path="/5BD29562/5BD109D7" Ref="D1001"  Part="1" 
F 0 "D201" H 5750 2009 50  0000 C CNN
F 1 "RB751" H 5750 2100 50  0000 C CNN
F 2 "Diode_SMD:D_SOD-523" H 5750 2225 50  0001 C CNN
F 3 "~" H 5750 2225 50  0001 C CNN
	1    5750 2225
	-1   0    0    1   
$EndComp
Wire Wire Line
	5350 2950 5350 2225
Wire Wire Line
	5350 1875 5600 1875
Connection ~ 5350 2950
Wire Wire Line
	5350 2950 5450 2950
Wire Wire Line
	5600 2225 5350 2225
Connection ~ 5350 2225
Wire Wire Line
	5350 2225 5350 1875
$Comp
L Device:D D202
U 1 1 5BD10DC6
P 6300 2850
AR Path="/5BD0DB90/5BD10DC6" Ref="D202"  Part="1" 
AR Path="/5BD15EBB/5BD10DC6" Ref="D402"  Part="1" 
AR Path="/5BD1F10A/5BD10DC6" Ref="D502"  Part="1" 
AR Path="/5BD209C2/5BD10DC6" Ref="D602"  Part="1" 
AR Path="/5BD29519/5BD10DC6" Ref="D702"  Part="1" 
AR Path="/5BD2955A/5BD10DC6" Ref="D802"  Part="1" 
AR Path="/5BD2955E/5BD10DC6" Ref="D902"  Part="1" 
AR Path="/5BD29562/5BD10DC6" Ref="D1002"  Part="1" 
F 0 "D202" H 6300 2634 50  0000 C CNN
F 1 "RB751" H 6300 2725 50  0000 C CNN
F 2 "Diode_SMD:D_SOD-523" H 6300 2850 50  0001 C CNN
F 3 "~" H 6300 2850 50  0001 C CNN
	1    6300 2850
	-1   0    0    1   
$EndComp
Wire Wire Line
	6150 2850 6050 2850
Wire Wire Line
	6450 2850 6600 2850
Wire Wire Line
	6600 2850 6600 2225
Wire Wire Line
	6600 1875 5900 1875
Wire Wire Line
	5900 2225 6600 2225
Connection ~ 6600 2225
Wire Wire Line
	6600 2225 6600 1875
$Comp
L Device:R R209
U 1 1 5BD117EA
P 6875 2850
AR Path="/5BD0DB90/5BD117EA" Ref="R209"  Part="1" 
AR Path="/5BD15EBB/5BD117EA" Ref="R409"  Part="1" 
AR Path="/5BD1F10A/5BD117EA" Ref="R509"  Part="1" 
AR Path="/5BD209C2/5BD117EA" Ref="R609"  Part="1" 
AR Path="/5BD29519/5BD117EA" Ref="R709"  Part="1" 
AR Path="/5BD2955A/5BD117EA" Ref="R809"  Part="1" 
AR Path="/5BD2955E/5BD117EA" Ref="R909"  Part="1" 
AR Path="/5BD29562/5BD117EA" Ref="R1009"  Part="1" 
F 0 "R209" V 6668 2850 50  0000 C CNN
F 1 "100" V 6759 2850 50  0000 C CNN
F 2 "Resistor_SMD:R_0603_1608Metric" V 6805 2850 50  0001 C CNN
F 3 "~" H 6875 2850 50  0001 C CNN
	1    6875 2850
	0    1    1    0   
$EndComp
Wire Wire Line
	6600 2850 6725 2850
Connection ~ 6600 2850
$Comp
L Device:R R210
U 1 1 5BD11C57
P 7775 3125
AR Path="/5BD0DB90/5BD11C57" Ref="R210"  Part="1" 
AR Path="/5BD15EBB/5BD11C57" Ref="R410"  Part="1" 
AR Path="/5BD1F10A/5BD11C57" Ref="R510"  Part="1" 
AR Path="/5BD209C2/5BD11C57" Ref="R610"  Part="1" 
AR Path="/5BD29519/5BD11C57" Ref="R710"  Part="1" 
AR Path="/5BD2955A/5BD11C57" Ref="R810"  Part="1" 
AR Path="/5BD2955E/5BD11C57" Ref="R910"  Part="1" 
AR Path="/5BD29562/5BD11C57" Ref="R1010"  Part="1" 
F 0 "R210" H 7845 3171 50  0000 L CNN
F 1 "10 k" H 7845 3080 50  0000 L CNN
F 2 "Resistor_SMD:R_0603_1608Metric" V 7705 3125 50  0001 C CNN
F 3 "~" H 7775 3125 50  0001 C CNN
	1    7775 3125
	1    0    0    -1  
$EndComp
$Comp
L Device:C C203
U 1 1 5BD11D36
P 7200 3125
AR Path="/5BD0DB90/5BD11D36" Ref="C203"  Part="1" 
AR Path="/5BD15EBB/5BD11D36" Ref="C404"  Part="1" 
AR Path="/5BD1F10A/5BD11D36" Ref="C504"  Part="1" 
AR Path="/5BD209C2/5BD11D36" Ref="C604"  Part="1" 
AR Path="/5BD29519/5BD11D36" Ref="C704"  Part="1" 
AR Path="/5BD2955A/5BD11D36" Ref="C804"  Part="1" 
AR Path="/5BD2955E/5BD11D36" Ref="C904"  Part="1" 
AR Path="/5BD29562/5BD11D36" Ref="C1004"  Part="1" 
F 0 "C203" H 7315 3171 50  0000 L CNN
F 1 "10 uF" H 7315 3080 50  0000 L CNN
F 2 "Capacitor_SMD:C_0603_1608Metric" H 7238 2975 50  0001 C CNN
F 3 "~" H 7200 3125 50  0001 C CNN
	1    7200 3125
	1    0    0    -1  
$EndComp
Wire Wire Line
	7025 2850 7200 2850
Wire Wire Line
	7775 2850 7775 2975
Wire Wire Line
	7200 2975 7200 2850
Connection ~ 7200 2850
Wire Wire Line
	7200 2850 7775 2850
$Comp
L power:GNDA #PWR0109
U 1 1 5BD124EC
P 7200 3275
AR Path="/5BD0DB90/5BD124EC" Ref="#PWR0109"  Part="1" 
AR Path="/5BD15EBB/5BD124EC" Ref="#PWR0127"  Part="1" 
AR Path="/5BD1F10A/5BD124EC" Ref="#PWR0137"  Part="1" 
AR Path="/5BD209C2/5BD124EC" Ref="#PWR0147"  Part="1" 
AR Path="/5BD29519/5BD124EC" Ref="#PWR0157"  Part="1" 
AR Path="/5BD2955A/5BD124EC" Ref="#PWR0167"  Part="1" 
AR Path="/5BD2955E/5BD124EC" Ref="#PWR0177"  Part="1" 
AR Path="/5BD29562/5BD124EC" Ref="#PWR0187"  Part="1" 
F 0 "#PWR0109" H 7200 3025 50  0001 C CNN
F 1 "GNDA" H 7205 3102 50  0000 C CNN
F 2 "" H 7200 3275 50  0001 C CNN
F 3 "" H 7200 3275 50  0001 C CNN
	1    7200 3275
	1    0    0    -1  
$EndComp
$Comp
L power:GNDA #PWR0110
U 1 1 5BD1251D
P 7775 3275
AR Path="/5BD0DB90/5BD1251D" Ref="#PWR0110"  Part="1" 
AR Path="/5BD15EBB/5BD1251D" Ref="#PWR0128"  Part="1" 
AR Path="/5BD1F10A/5BD1251D" Ref="#PWR0138"  Part="1" 
AR Path="/5BD209C2/5BD1251D" Ref="#PWR0148"  Part="1" 
AR Path="/5BD29519/5BD1251D" Ref="#PWR0158"  Part="1" 
AR Path="/5BD2955A/5BD1251D" Ref="#PWR0168"  Part="1" 
AR Path="/5BD2955E/5BD1251D" Ref="#PWR0178"  Part="1" 
AR Path="/5BD29562/5BD1251D" Ref="#PWR0188"  Part="1" 
F 0 "#PWR0110" H 7775 3025 50  0001 C CNN
F 1 "GNDA" H 7780 3102 50  0000 C CNN
F 2 "" H 7775 3275 50  0001 C CNN
F 3 "" H 7775 3275 50  0001 C CNN
	1    7775 3275
	1    0    0    -1  
$EndComp
Wire Wire Line
	7775 2850 8300 2850
Connection ~ 7775 2850
Text HLabel 9425 2850 2    50   Output ~ 0
AMPLITUDE
Wire Wire Line
	9425 2850 8875 2850
$Comp
L Device:R R212
U 1 1 5BD13943
P 8450 2850
AR Path="/5BD0DB90/5BD13943" Ref="R212"  Part="1" 
AR Path="/5BD15EBB/5BD13943" Ref="R411"  Part="1" 
AR Path="/5BD1F10A/5BD13943" Ref="R511"  Part="1" 
AR Path="/5BD209C2/5BD13943" Ref="R611"  Part="1" 
AR Path="/5BD29519/5BD13943" Ref="R711"  Part="1" 
AR Path="/5BD2955A/5BD13943" Ref="R811"  Part="1" 
AR Path="/5BD2955E/5BD13943" Ref="R911"  Part="1" 
AR Path="/5BD29562/5BD13943" Ref="R1011"  Part="1" 
F 0 "R212" V 8243 2850 50  0000 C CNN
F 1 "100" V 8334 2850 50  0000 C CNN
F 2 "Resistor_SMD:R_0603_1608Metric" V 8380 2850 50  0001 C CNN
F 3 "~" H 8450 2850 50  0001 C CNN
	1    8450 2850
	0    1    1    0   
$EndComp
Text HLabel 1325 3050 0    50   Input ~ 0
MIC
$Comp
L Device:C C204
U 1 1 5BD0FF21
P 4700 4100
AR Path="/5BD0DB90/5BD0FF21" Ref="C204"  Part="1" 
AR Path="/5BD15EBB/5BD0FF21" Ref="C403"  Part="1" 
AR Path="/5BD1F10A/5BD0FF21" Ref="C503"  Part="1" 
AR Path="/5BD209C2/5BD0FF21" Ref="C603"  Part="1" 
AR Path="/5BD29519/5BD0FF21" Ref="C703"  Part="1" 
AR Path="/5BD2955A/5BD0FF21" Ref="C803"  Part="1" 
AR Path="/5BD2955E/5BD0FF21" Ref="C903"  Part="1" 
AR Path="/5BD29562/5BD0FF21" Ref="C1003"  Part="1" 
F 0 "C204" H 4815 4146 50  0000 L CNN
F 1 "1 uF" H 4815 4055 50  0000 L CNN
F 2 "Capacitor_SMD:C_0603_1608Metric" H 4738 3950 50  0001 C CNN
F 3 "~" H 4700 4100 50  0001 C CNN
	1    4700 4100
	1    0    0    -1  
$EndComp
$Comp
L power:+3.3VA #PWR0201
U 1 1 5BD10293
P 4700 3950
AR Path="/5BD0DB90/5BD10293" Ref="#PWR0201"  Part="1" 
AR Path="/5BD15EBB/5BD10293" Ref="#PWR0129"  Part="1" 
AR Path="/5BD1F10A/5BD10293" Ref="#PWR0139"  Part="1" 
AR Path="/5BD209C2/5BD10293" Ref="#PWR0149"  Part="1" 
AR Path="/5BD29519/5BD10293" Ref="#PWR0159"  Part="1" 
AR Path="/5BD2955A/5BD10293" Ref="#PWR0169"  Part="1" 
AR Path="/5BD2955E/5BD10293" Ref="#PWR0179"  Part="1" 
AR Path="/5BD29562/5BD10293" Ref="#PWR0189"  Part="1" 
F 0 "#PWR0201" H 4700 3800 50  0001 C CNN
F 1 "+3.3VA" H 4715 4123 50  0000 C CNN
F 2 "" H 4700 3950 50  0001 C CNN
F 3 "" H 4700 3950 50  0001 C CNN
	1    4700 3950
	1    0    0    -1  
$EndComp
$Comp
L power:GNDA #PWR0202
U 1 1 5BD102CC
P 4700 4250
AR Path="/5BD0DB90/5BD102CC" Ref="#PWR0202"  Part="1" 
AR Path="/5BD15EBB/5BD102CC" Ref="#PWR0130"  Part="1" 
AR Path="/5BD1F10A/5BD102CC" Ref="#PWR0140"  Part="1" 
AR Path="/5BD209C2/5BD102CC" Ref="#PWR0150"  Part="1" 
AR Path="/5BD29519/5BD102CC" Ref="#PWR0160"  Part="1" 
AR Path="/5BD2955A/5BD102CC" Ref="#PWR0170"  Part="1" 
AR Path="/5BD2955E/5BD102CC" Ref="#PWR0180"  Part="1" 
AR Path="/5BD29562/5BD102CC" Ref="#PWR0190"  Part="1" 
F 0 "#PWR0202" H 4700 4000 50  0001 C CNN
F 1 "GNDA" H 4705 4077 50  0000 C CNN
F 2 "" H 4700 4250 50  0001 C CNN
F 3 "" H 4700 4250 50  0001 C CNN
	1    4700 4250
	1    0    0    -1  
$EndComp
$Comp
L Amplifier_Operational:LMV358 U201
U 1 1 5BD11422
P 3875 2950
AR Path="/5BD0DB90/5BD11422" Ref="U201"  Part="1" 
AR Path="/5BD15EBB/5BD11422" Ref="U401"  Part="1" 
AR Path="/5BD1F10A/5BD11422" Ref="U501"  Part="1" 
AR Path="/5BD209C2/5BD11422" Ref="U601"  Part="1" 
AR Path="/5BD29519/5BD11422" Ref="U701"  Part="1" 
AR Path="/5BD2955A/5BD11422" Ref="U801"  Part="1" 
AR Path="/5BD2955E/5BD11422" Ref="U901"  Part="1" 
AR Path="/5BD29562/5BD11422" Ref="U1001"  Part="1" 
F 0 "U201" H 3950 3300 50  0000 C CNN
F 1 "LMV358" H 3950 3200 50  0000 C CNN
F 2 "Package_SO:SOIC-8_3.9x4.9mm_P1.27mm" H 3875 2950 50  0001 C CNN
F 3 "http://www.ti.com/lit/ds/symlink/lmv324.pdf" H 3875 2950 50  0001 C CNN
	1    3875 2950
	1    0    0    -1  
$EndComp
$Comp
L Amplifier_Operational:LMV358 U201
U 2 1 5BD11519
P 5750 2850
AR Path="/5BD0DB90/5BD11519" Ref="U201"  Part="2" 
AR Path="/5BD15EBB/5BD11519" Ref="U401"  Part="2" 
AR Path="/5BD1F10A/5BD11519" Ref="U501"  Part="2" 
AR Path="/5BD209C2/5BD11519" Ref="U601"  Part="2" 
AR Path="/5BD29519/5BD11519" Ref="U701"  Part="2" 
AR Path="/5BD2955A/5BD11519" Ref="U801"  Part="2" 
AR Path="/5BD2955E/5BD11519" Ref="U901"  Part="2" 
AR Path="/5BD29562/5BD11519" Ref="U1001"  Part="2" 
F 0 "U201" H 5750 3217 50  0000 C CNN
F 1 "LMV358" H 5750 3126 50  0000 C CNN
F 2 "Package_SO:SO-8_5.3x6.2mm_P1.27mm" H 5750 2850 50  0001 C CNN
F 3 "http://www.ti.com/lit/ds/symlink/lmv324.pdf" H 5750 2850 50  0001 C CNN
	2    5750 2850
	1    0    0    -1  
$EndComp
$Comp
L Amplifier_Operational:LMV358 U201
U 3 1 5BD115F1
P 3875 2950
AR Path="/5BD0DB90/5BD115F1" Ref="U201"  Part="3" 
AR Path="/5BD15EBB/5BD115F1" Ref="U401"  Part="3" 
AR Path="/5BD1F10A/5BD115F1" Ref="U501"  Part="3" 
AR Path="/5BD209C2/5BD115F1" Ref="U601"  Part="3" 
AR Path="/5BD29519/5BD115F1" Ref="U701"  Part="3" 
AR Path="/5BD2955A/5BD115F1" Ref="U801"  Part="3" 
AR Path="/5BD2955E/5BD115F1" Ref="U901"  Part="3" 
AR Path="/5BD29562/5BD115F1" Ref="U1001"  Part="3" 
F 0 "U201" H 3900 2700 50  0000 L CNN
F 1 "LMV358" H 3900 2800 50  0000 L CNN
F 2 "Package_SO:SO-8_5.3x6.2mm_P1.27mm" H 3875 2950 50  0001 C CNN
F 3 "http://www.ti.com/lit/ds/symlink/lmv324.pdf" H 3875 2950 50  0001 C CNN
	3    3875 2950
	1    0    0    -1  
$EndComp
$Comp
L Device:R R206
U 1 1 5BD11F6B
P 3800 2175
AR Path="/5BD0DB90/5BD11F6B" Ref="R206"  Part="1" 
AR Path="/5BD15EBB/5BD11F6B" Ref="R406"  Part="1" 
AR Path="/5BD1F10A/5BD11F6B" Ref="R506"  Part="1" 
AR Path="/5BD209C2/5BD11F6B" Ref="R606"  Part="1" 
AR Path="/5BD29519/5BD11F6B" Ref="R706"  Part="1" 
AR Path="/5BD2955A/5BD11F6B" Ref="R806"  Part="1" 
AR Path="/5BD2955E/5BD11F6B" Ref="R906"  Part="1" 
AR Path="/5BD29562/5BD11F6B" Ref="R1006"  Part="1" 
F 0 "R206" V 3593 2175 50  0000 C CNN
F 1 "100 k" V 3684 2175 50  0000 C CNN
F 2 "Resistor_SMD:R_0603_1608Metric" V 3730 2175 50  0001 C CNN
F 3 "~" H 3800 2175 50  0001 C CNN
	1    3800 2175
	0    1    1    0   
$EndComp
$Comp
L Device:R R205
U 1 1 5BD1201D
P 3800 1850
AR Path="/5BD0DB90/5BD1201D" Ref="R205"  Part="1" 
AR Path="/5BD15EBB/5BD1201D" Ref="R405"  Part="1" 
AR Path="/5BD1F10A/5BD1201D" Ref="R505"  Part="1" 
AR Path="/5BD209C2/5BD1201D" Ref="R605"  Part="1" 
AR Path="/5BD29519/5BD1201D" Ref="R705"  Part="1" 
AR Path="/5BD2955A/5BD1201D" Ref="R805"  Part="1" 
AR Path="/5BD2955E/5BD1201D" Ref="R905"  Part="1" 
AR Path="/5BD29562/5BD1201D" Ref="R1005"  Part="1" 
F 0 "R205" V 3593 1850 50  0000 C CNN
F 1 "GAIN" V 3684 1850 50  0000 C CNN
F 2 "Resistor_SMD:R_0603_1608Metric" V 3730 1850 50  0001 C CNN
F 3 "~" H 3800 1850 50  0001 C CNN
	1    3800 1850
	0    1    1    0   
$EndComp
Wire Wire Line
	3475 3050 3475 2175
Wire Wire Line
	3475 2175 3650 2175
Connection ~ 3475 3050
Wire Wire Line
	3475 3050 3575 3050
Wire Wire Line
	3475 2175 3475 1850
Wire Wire Line
	3475 1850 3650 1850
Connection ~ 3475 2175
Wire Wire Line
	3950 2175 4225 2175
Wire Wire Line
	4225 2175 4225 2950
Connection ~ 4225 2950
Wire Wire Line
	4225 2950 4175 2950
Wire Wire Line
	3950 1850 4225 1850
Wire Wire Line
	4225 1850 4225 2175
Connection ~ 4225 2175
$Comp
L Connector:TestPoint TP202
U 1 1 5BD4A98C
P 4850 2575
F 0 "TP202" H 4908 2695 50  0000 L CNN
F 1 "TestPoint" H 4908 2604 50  0000 L CNN
F 2 "EarControllerParts:TestPoint-1206" H 5050 2575 50  0001 C CNN
F 3 "~" H 5050 2575 50  0001 C CNN
	1    4850 2575
	1    0    0    -1  
$EndComp
Wire Wire Line
	4850 2575 4850 2650
Wire Wire Line
	4850 2650 5050 2650
Wire Wire Line
	5050 2650 5050 2950
Connection ~ 5050 2950
Wire Wire Line
	5050 2950 5350 2950
$Comp
L Connector:TestPoint TP203
U 1 1 5BD4C2CF
P 8875 2650
F 0 "TP203" H 8933 2770 50  0000 L CNN
F 1 "TestPoint" H 8933 2679 50  0000 L CNN
F 2 "EarControllerParts:TestPoint-1206" H 9075 2650 50  0001 C CNN
F 3 "~" H 9075 2650 50  0001 C CNN
	1    8875 2650
	1    0    0    -1  
$EndComp
Wire Wire Line
	8875 2650 8875 2850
$Comp
L Connector:TestPoint TP201
U 1 1 5BD4E354
P 2675 2900
F 0 "TP201" H 2733 3020 50  0000 L CNN
F 1 "TestPoint" H 2733 2929 50  0000 L CNN
F 2 "EarControllerParts:TestPoint-1206" H 2875 2900 50  0001 C CNN
F 3 "~" H 2875 2900 50  0001 C CNN
	1    2675 2900
	1    0    0    -1  
$EndComp
Wire Wire Line
	2675 2900 2675 3050
Connection ~ 2675 3050
Wire Wire Line
	2675 3050 3475 3050
Connection ~ 8875 2850
Wire Wire Line
	8875 2850 8600 2850
Text Notes 7000 6700 0    50   ~ 0
Based on SparkFun Sound Sensor\nhttps://cdn.sparkfun.com/datasheets/Sensors/Sound/sound-detector.pdf
$EndSCHEMATC
