EESchema Schematic File Version 4
EELAYER 26 0
EELAYER END
$Descr A4 11693 8268
encoding utf-8
Sheet 3 4
Title "Ear Controller Prototype"
Date "2018-11-07"
Rev "0.1"
Comp "Feliform Labs"
Comment1 "Licensed under the Solderpad Hardware License, version 2.0"
Comment2 "Copyright 2018 Feliform Labs"
Comment3 ""
Comment4 ""
$EndDescr
Text HLabel 6250 2850 2    50   Input ~ 0
AMPLITUDE0
Wire Wire Line
	6000 2850 6250 2850
$Comp
L power:GNDD #PWR0312
U 1 1 5BD1441D
P 5400 4025
F 0 "#PWR0312" H 5400 3775 50  0001 C CNN
F 1 "GNDD" H 5404 3870 50  0000 C CNN
F 2 "" H 5400 4025 50  0001 C CNN
F 3 "" H 5400 4025 50  0001 C CNN
	1    5400 4025
	1    0    0    -1  
$EndComp
Wire Wire Line
	5400 3850 5400 3925
Wire Wire Line
	5400 3925 5500 3925
Connection ~ 5400 3925
Wire Wire Line
	5400 3925 5400 4025
Wire Wire Line
	5500 3850 5500 3925
$Comp
L power:+3.3VA #PWR0313
U 1 1 5BD146B1
P 5600 1775
F 0 "#PWR0313" H 5600 1625 50  0001 C CNN
F 1 "+3.3VA" H 5615 1948 50  0000 C CNN
F 2 "" H 5600 1775 50  0001 C CNN
F 3 "" H 5600 1775 50  0001 C CNN
	1    5600 1775
	1    0    0    -1  
$EndComp
$Comp
L power:+3.3V #PWR0311
U 1 1 5BD146E7
P 5400 1775
F 0 "#PWR0311" H 5400 1625 50  0001 C CNN
F 1 "+3.3V" H 5415 1948 50  0000 C CNN
F 2 "" H 5400 1775 50  0001 C CNN
F 3 "" H 5400 1775 50  0001 C CNN
	1    5400 1775
	1    0    0    -1  
$EndComp
Wire Wire Line
	5400 1775 5400 1875
Wire Wire Line
	5500 1950 5500 1875
$Comp
L Connector_Generic:Conn_02x05_Odd_Even J301
U 1 1 5BD1128D
P 2500 4375
F 0 "J301" H 2550 4792 50  0000 C CNN
F 1 "Conn_02x05_Odd_Even" H 2550 4701 50  0000 C CNN
F 2 "EarControllerParts:FTSH-105-01-F-D-K" H 2500 4375 50  0001 C CNN
F 3 "~" H 2500 4375 50  0001 C CNN
	1    2500 4375
	1    0    0    -1  
$EndComp
Text Notes 2325 3875 0    50   ~ 0
Debug connector
Wire Wire Line
	2000 4000 2000 4175
$Comp
L power:GNDD #PWR0302
U 1 1 5BD11785
P 2000 4600
F 0 "#PWR0302" H 2000 4350 50  0001 C CNN
F 1 "GNDD" H 2004 4445 50  0000 C CNN
F 2 "" H 2000 4600 50  0001 C CNN
F 3 "" H 2000 4600 50  0001 C CNN
	1    2000 4600
	1    0    0    -1  
$EndComp
Wire Wire Line
	2000 4600 2000 4575
Wire Wire Line
	2000 4275 2300 4275
Wire Wire Line
	2300 4375 2000 4375
Connection ~ 2000 4375
Wire Wire Line
	2000 4375 2000 4275
Wire Wire Line
	2300 4575 2000 4575
Connection ~ 2000 4575
Wire Wire Line
	2000 4575 2000 4375
Text Label 6400 3450 2    50   ~ 0
SWDIO
Text Label 6400 3550 2    50   ~ 0
SWCLK
Wire Wire Line
	6400 3550 6000 3550
Wire Wire Line
	6400 3450 6000 3450
Text Label 3525 4175 2    50   ~ 0
SWDIO
Text Label 3525 4275 2    50   ~ 0
SWCLK
Text Label 3050 2150 0    50   ~ 0
MCU_NRST
Wire Wire Line
	3050 2150 3500 2150
Text Label 3525 4575 2    50   ~ 0
MCU_NRST
Text HLabel 4750 3150 0    50   Output ~ 0
PWM0
Text HLabel 4750 3050 0    50   Output ~ 0
PWM1
Text HLabel 4750 3450 0    50   Output ~ 0
PWM3
Wire Wire Line
	4750 3450 4900 3450
Wire Wire Line
	4750 3050 4900 3050
Wire Wire Line
	4750 3150 4900 3150
Text HLabel 4750 3350 0    50   Output ~ 0
PWM2
Wire Wire Line
	4750 3350 4900 3350
Text HLabel 6275 3050 2    50   Output ~ 0
CIC_TX
Text HLabel 6275 3150 2    50   Input ~ 0
CIC_RX
Wire Wire Line
	6275 3050 6000 3050
Wire Wire Line
	6000 3150 6275 3150
Wire Wire Line
	5600 1775 5600 1950
Wire Wire Line
	5400 1875 5500 1875
Connection ~ 5400 1875
Wire Wire Line
	5400 1875 5400 1950
$Comp
L Device:C C301
U 1 1 5BD937B3
P 3500 2350
F 0 "C301" H 3615 2396 50  0000 L CNN
F 1 "0.1 uF" H 3615 2305 50  0000 L CNN
F 2 "Capacitor_SMD:C_0603_1608Metric" H 3538 2200 50  0001 C CNN
F 3 "~" H 3500 2350 50  0001 C CNN
	1    3500 2350
	1    0    0    -1  
$EndComp
$Comp
L power:GNDD #PWR0303
U 1 1 5BD93862
P 3500 2500
F 0 "#PWR0303" H 3500 2250 50  0001 C CNN
F 1 "GNDD" H 3504 2345 50  0000 C CNN
F 2 "" H 3500 2500 50  0001 C CNN
F 3 "" H 3500 2500 50  0001 C CNN
	1    3500 2500
	1    0    0    -1  
$EndComp
Wire Wire Line
	3500 2200 3500 2150
Connection ~ 3500 2150
Wire Wire Line
	3500 2150 4900 2150
$Comp
L Device:C C302
U 1 1 5BD944EC
P 3550 950
F 0 "C302" H 3665 996 50  0000 L CNN
F 1 "0.1 uF" H 3665 905 50  0000 L CNN
F 2 "Capacitor_SMD:C_0603_1608Metric" H 3588 800 50  0001 C CNN
F 3 "~" H 3550 950 50  0001 C CNN
	1    3550 950 
	1    0    0    -1  
$EndComp
$Comp
L power:+3.3V #PWR0304
U 1 1 5BD945B0
P 3550 800
F 0 "#PWR0304" H 3550 650 50  0001 C CNN
F 1 "+3.3V" H 3565 973 50  0000 C CNN
F 2 "" H 3550 800 50  0001 C CNN
F 3 "" H 3550 800 50  0001 C CNN
	1    3550 800 
	1    0    0    -1  
$EndComp
$Comp
L power:GNDD #PWR0305
U 1 1 5BD945C3
P 3550 1100
F 0 "#PWR0305" H 3550 850 50  0001 C CNN
F 1 "GNDD" H 3554 945 50  0000 C CNN
F 2 "" H 3550 1100 50  0001 C CNN
F 3 "" H 3550 1100 50  0001 C CNN
	1    3550 1100
	1    0    0    -1  
$EndComp
$Comp
L Device:C C303
U 1 1 5BD94FA3
P 4550 950
F 0 "C303" H 4665 996 50  0000 L CNN
F 1 "0.1 uF" H 4665 905 50  0000 L CNN
F 2 "Capacitor_SMD:C_0603_1608Metric" H 4588 800 50  0001 C CNN
F 3 "~" H 4550 950 50  0001 C CNN
	1    4550 950 
	1    0    0    -1  
$EndComp
$Comp
L power:+3.3V #PWR0306
U 1 1 5BD94FA9
P 4550 800
F 0 "#PWR0306" H 4550 650 50  0001 C CNN
F 1 "+3.3V" H 4565 973 50  0000 C CNN
F 2 "" H 4550 800 50  0001 C CNN
F 3 "" H 4550 800 50  0001 C CNN
	1    4550 800 
	1    0    0    -1  
$EndComp
$Comp
L power:GNDD #PWR0307
U 1 1 5BD94FAF
P 4550 1100
F 0 "#PWR0307" H 4550 850 50  0001 C CNN
F 1 "GNDD" H 4554 945 50  0000 C CNN
F 2 "" H 4550 1100 50  0001 C CNN
F 3 "" H 4550 1100 50  0001 C CNN
	1    4550 1100
	1    0    0    -1  
$EndComp
$Comp
L Device:C C304
U 1 1 5BD95936
P 5050 950
F 0 "C304" H 5165 996 50  0000 L CNN
F 1 "0.1 uF" H 5165 905 50  0000 L CNN
F 2 "Capacitor_SMD:C_0603_1608Metric" H 5088 800 50  0001 C CNN
F 3 "~" H 5050 950 50  0001 C CNN
	1    5050 950 
	1    0    0    -1  
$EndComp
$Comp
L power:+3.3VA #PWR0309
U 1 1 5BD96268
P 5050 800
F 0 "#PWR0309" H 5050 650 50  0001 C CNN
F 1 "+3.3VA" H 5065 973 50  0000 C CNN
F 2 "" H 5050 800 50  0001 C CNN
F 3 "" H 5050 800 50  0001 C CNN
	1    5050 800 
	1    0    0    -1  
$EndComp
$Comp
L power:GNDD #PWR0308
U 1 1 5BD96414
P 4575 2375
F 0 "#PWR0308" H 4575 2125 50  0001 C CNN
F 1 "GNDD" H 4579 2220 50  0000 C CNN
F 2 "" H 4575 2375 50  0001 C CNN
F 3 "" H 4575 2375 50  0001 C CNN
	1    4575 2375
	1    0    0    -1  
$EndComp
Wire Wire Line
	4575 2375 4575 2350
Wire Wire Line
	4575 2350 4900 2350
$Comp
L power:+3.3V #PWR0301
U 1 1 5BDA8DB0
P 2000 4000
F 0 "#PWR0301" H 2000 3850 50  0001 C CNN
F 1 "+3.3V" H 2015 4173 50  0000 C CNN
F 2 "" H 2000 4000 50  0001 C CNN
F 3 "" H 2000 4000 50  0001 C CNN
	1    2000 4000
	1    0    0    -1  
$EndComp
$Comp
L Device:LED D301
U 1 1 5BDB0A54
P 7000 3200
F 0 "D301" V 7038 3083 50  0000 R CNN
F 1 "LED" V 6947 3083 50  0000 R CNN
F 2 "LED_SMD:LED_0603_1608Metric" H 7000 3200 50  0001 C CNN
F 3 "~" H 7000 3200 50  0001 C CNN
	1    7000 3200
	0    -1   -1   0   
$EndComp
$Comp
L Device:R R301
U 1 1 5BDB0B0E
P 7000 3600
F 0 "R301" H 7070 3646 50  0000 L CNN
F 1 "470" H 7070 3555 50  0000 L CNN
F 2 "Resistor_SMD:R_0603_1608Metric" V 6930 3600 50  0001 C CNN
F 3 "~" H 7000 3600 50  0001 C CNN
	1    7000 3600
	1    0    0    -1  
$EndComp
$Comp
L power:GNDD #PWR0314
U 1 1 5BDB0B82
P 7000 3750
F 0 "#PWR0314" H 7000 3500 50  0001 C CNN
F 1 "GNDD" H 7004 3595 50  0000 C CNN
F 2 "" H 7000 3750 50  0001 C CNN
F 3 "" H 7000 3750 50  0001 C CNN
	1    7000 3750
	1    0    0    -1  
$EndComp
Wire Wire Line
	7000 3450 7000 3350
Wire Wire Line
	6000 2950 7000 2950
Wire Wire Line
	7000 2950 7000 3050
Wire Wire Line
	2000 4175 2300 4175
Wire Wire Line
	2800 4575 3525 4575
Wire Wire Line
	2800 4175 3525 4175
Wire Wire Line
	2800 4275 3525 4275
$Comp
L power:GNDD #PWR0102
U 1 1 5BD5DB8B
P 5050 1100
F 0 "#PWR0102" H 5050 850 50  0001 C CNN
F 1 "GNDD" H 5054 945 50  0000 C CNN
F 2 "" H 5050 1100 50  0001 C CNN
F 3 "" H 5050 1100 50  0001 C CNN
	1    5050 1100
	1    0    0    -1  
$EndComp
$Comp
L MCU_ST_STM32F0:STM32F051K8Tx U301
U 1 1 5BE35869
P 5500 2850
F 0 "U301" H 5625 1800 50  0000 C CNN
F 1 "STM32F051K8Tx" H 5875 1875 50  0000 C CNN
F 2 "Package_QFP:LQFP-32_7x7mm_P0.8mm" H 5000 1950 50  0001 R CNN
F 3 "http://www.st.com/st-web-ui/static/active/en/resource/technical/document/datasheet/DM00039193.pdf" H 5500 2850 50  0001 C CNN
	1    5500 2850
	1    0    0    -1  
$EndComp
NoConn ~ 6000 2750
NoConn ~ 6000 2650
NoConn ~ 6000 2550
NoConn ~ 6000 2450
NoConn ~ 6000 2350
NoConn ~ 6000 2250
NoConn ~ 6000 2150
NoConn ~ 6000 3250
NoConn ~ 6000 3350
NoConn ~ 6000 3650
NoConn ~ 4900 3250
NoConn ~ 4900 3550
NoConn ~ 4900 3650
NoConn ~ 4900 2850
NoConn ~ 4900 2750
$EndSCHEMATC
