EESchema Schematic File Version 4
EELAYER 26 0
EELAYER END
$Descr A4 11693 8268
encoding utf-8
Sheet 4 4
Title "Ear Controller Prototype"
Date "2018-11-07"
Rev "0.1"
Comp "Feliform Labs"
Comment1 "Licensed under the Solderpad Hardware License, version 2.0"
Comment2 "Copyright 2018 Feliform Labs"
Comment3 ""
Comment4 ""
$EndDescr
$Comp
L EarControllerParts:LMZ14203H U401
U 1 1 5BD7D3D6
P 3275 6050
F 0 "U401" H 3275 6615 50  0000 C CNN
F 1 "LMZ14203H" H 3275 6524 50  0000 C CNN
F 2 "EarControllerParts:TO-PMOD-7" H 3275 6050 50  0001 C CNN
F 3 "https://www.ti.com/lit/ds/symlink/lmz14203h.pdf" H 3275 6050 50  0001 C CNN
	1    3275 6050
	1    0    0    -1  
$EndComp
Text Notes 3000 6775 0    50   ~ 0
6 V regulator
$Comp
L power:GND #PWR0406
U 1 1 5BD7D606
P 3875 6300
F 0 "#PWR0406" H 3875 6050 50  0001 C CNN
F 1 "GND" H 3880 6127 50  0000 C CNN
F 2 "" H 3875 6300 50  0001 C CNN
F 3 "" H 3875 6300 50  0001 C CNN
	1    3875 6300
	1    0    0    -1  
$EndComp
Wire Wire Line
	3875 6300 3875 6200
Wire Wire Line
	3875 6050 3725 6050
Wire Wire Line
	3725 6200 3875 6200
Connection ~ 3875 6200
Wire Wire Line
	3875 6200 3875 6050
$Comp
L Device:C C402
U 1 1 5BD7DC80
P 1850 5950
F 0 "C402" H 1965 5996 50  0000 L CNN
F 1 "10 uF" H 1965 5905 50  0000 L CNN
F 2 "Capacitor_SMD:C_1206_3216Metric_Pad1.42x1.75mm_HandSolder" H 1888 5800 50  0001 C CNN
F 3 "~" H 1850 5950 50  0001 C CNN
	1    1850 5950
	1    0    0    -1  
$EndComp
$Comp
L power:+12V #PWR0403
U 1 1 5BD7DD2D
P 1850 5300
F 0 "#PWR0403" H 1850 5150 50  0001 C CNN
F 1 "+12V" H 1865 5473 50  0000 C CNN
F 2 "" H 1850 5300 50  0001 C CNN
F 3 "" H 1850 5300 50  0001 C CNN
	1    1850 5300
	1    0    0    -1  
$EndComp
Wire Wire Line
	1850 5300 1850 5425
$Comp
L power:GND #PWR0404
U 1 1 5BD7DD71
P 1850 6325
F 0 "#PWR0404" H 1850 6075 50  0001 C CNN
F 1 "GND" H 1855 6152 50  0000 C CNN
F 2 "" H 1850 6325 50  0001 C CNN
F 3 "" H 1850 6325 50  0001 C CNN
	1    1850 6325
	1    0    0    -1  
$EndComp
Wire Wire Line
	1850 6325 1850 6250
Wire Wire Line
	3725 5750 3925 5750
Wire Wire Line
	3925 5750 3925 5425
Wire Wire Line
	3925 5425 2275 5425
Connection ~ 1850 5425
Wire Wire Line
	1850 5425 1850 5800
$Comp
L Device:R R403
U 1 1 5BD7DE1C
P 2275 5675
F 0 "R403" H 2345 5721 50  0000 L CNN
F 1 "105 k" H 2345 5630 50  0000 L CNN
F 2 "Resistor_SMD:R_0603_1608Metric" V 2205 5675 50  0001 C CNN
F 3 "~" H 2275 5675 50  0001 C CNN
	1    2275 5675
	1    0    0    -1  
$EndComp
Wire Wire Line
	2275 5525 2275 5425
Connection ~ 2275 5425
Wire Wire Line
	2275 5425 1850 5425
Wire Wire Line
	2275 5825 2275 6050
Wire Wire Line
	2275 6050 2825 6050
$Comp
L Device:C C403
U 1 1 5BD7E36D
P 2500 6725
F 0 "C403" H 2615 6771 50  0000 L CNN
F 1 "4.7 nF" H 2615 6680 50  0000 L CNN
F 2 "Capacitor_SMD:C_0603_1608Metric" H 2538 6575 50  0001 C CNN
F 3 "~" H 2500 6725 50  0001 C CNN
	1    2500 6725
	1    0    0    -1  
$EndComp
$Comp
L power:GND #PWR0405
U 1 1 5BD7E400
P 2500 6875
F 0 "#PWR0405" H 2500 6625 50  0001 C CNN
F 1 "GND" H 2505 6702 50  0000 C CNN
F 2 "" H 2500 6875 50  0001 C CNN
F 3 "" H 2500 6875 50  0001 C CNN
	1    2500 6875
	1    0    0    -1  
$EndComp
Wire Wire Line
	2500 6575 2500 5900
Wire Wire Line
	2500 5900 2825 5900
$Comp
L Device:R R404
U 1 1 5BD7E553
P 4750 5900
F 0 "R404" H 4820 5946 50  0000 L CNN
F 1 "34 k" H 4820 5855 50  0000 L CNN
F 2 "Resistor_SMD:R_0603_1608Metric" V 4680 5900 50  0001 C CNN
F 3 "~" H 4750 5900 50  0001 C CNN
	1    4750 5900
	1    0    0    -1  
$EndComp
$Comp
L Device:R R405
U 1 1 5BD7E5D7
P 4750 6375
F 0 "R405" H 4820 6421 50  0000 L CNN
F 1 "5.23 k" H 4820 6330 50  0000 L CNN
F 2 "Resistor_SMD:R_0603_1608Metric" V 4680 6375 50  0001 C CNN
F 3 "~" H 4750 6375 50  0001 C CNN
	1    4750 6375
	1    0    0    -1  
$EndComp
$Comp
L Device:C C405
U 1 1 5BD7E999
P 5300 5900
F 0 "C405" H 5415 5946 50  0000 L CNN
F 1 "1.2 nF" H 5415 5855 50  0000 L CNN
F 2 "Capacitor_SMD:C_0603_1608Metric" H 5338 5750 50  0001 C CNN
F 3 "~" H 5300 5900 50  0001 C CNN
	1    5300 5900
	1    0    0    -1  
$EndComp
Wire Wire Line
	2825 6200 2775 6200
Wire Wire Line
	2775 6200 2775 6525
Wire Wire Line
	2775 6525 4375 6525
Wire Wire Line
	4375 6525 4375 6125
Wire Wire Line
	4375 6125 4750 6125
Wire Wire Line
	4750 6125 4750 6225
Wire Wire Line
	4750 6050 4750 6125
Connection ~ 4750 6125
$Comp
L power:GND #PWR0409
U 1 1 5BD7EF3D
P 4750 6525
F 0 "#PWR0409" H 4750 6275 50  0001 C CNN
F 1 "GND" H 4755 6352 50  0000 C CNN
F 2 "" H 4750 6525 50  0001 C CNN
F 3 "" H 4750 6525 50  0001 C CNN
	1    4750 6525
	1    0    0    -1  
$EndComp
Wire Wire Line
	3725 5900 4050 5900
Wire Wire Line
	4050 5900 4050 5525
Wire Wire Line
	4050 5525 4750 5525
Wire Wire Line
	5300 5525 5300 5750
Wire Wire Line
	4750 5750 4750 5525
Connection ~ 4750 5525
Wire Wire Line
	4750 5525 5300 5525
Wire Wire Line
	4750 6125 5300 6125
Wire Wire Line
	5300 6125 5300 6050
$Comp
L Device:C C407
U 1 1 5BD7F9D2
P 5850 5900
F 0 "C407" H 5965 5946 50  0000 L CNN
F 1 "47 uF" H 5965 5855 50  0000 L CNN
F 2 "Capacitor_SMD:C_1206_3216Metric_Pad1.42x1.75mm_HandSolder" H 5888 5750 50  0001 C CNN
F 3 "~" H 5850 5900 50  0001 C CNN
	1    5850 5900
	1    0    0    -1  
$EndComp
Wire Wire Line
	5300 5525 5850 5525
Wire Wire Line
	5850 5525 5850 5750
Connection ~ 5300 5525
$Comp
L power:GND #PWR0413
U 1 1 5BD802AF
P 5850 6525
F 0 "#PWR0413" H 5850 6275 50  0001 C CNN
F 1 "GND" H 5855 6352 50  0000 C CNN
F 2 "" H 5850 6525 50  0001 C CNN
F 3 "" H 5850 6525 50  0001 C CNN
	1    5850 6525
	1    0    0    -1  
$EndComp
Wire Wire Line
	5850 6525 5850 6050
$Comp
L power:+6V #PWR0412
U 1 1 5BD806CC
P 5850 5400
F 0 "#PWR0412" H 5850 5250 50  0001 C CNN
F 1 "+6V" H 5865 5573 50  0000 C CNN
F 2 "" H 5850 5400 50  0001 C CNN
F 3 "" H 5850 5400 50  0001 C CNN
	1    5850 5400
	1    0    0    -1  
$EndComp
Wire Wire Line
	5850 5525 5850 5400
Connection ~ 5850 5525
Wire Wire Line
	1400 4775 2700 4775
Wire Wire Line
	2700 4775 2700 5750
Wire Wire Line
	2700 5750 2825 5750
$Comp
L Device:R R401
U 1 1 5BD8235F
P 1400 4550
F 0 "R401" H 1470 4596 50  0000 L CNN
F 1 "68.1 k" H 1470 4505 50  0000 L CNN
F 2 "Resistor_SMD:R_0603_1608Metric" V 1330 4550 50  0001 C CNN
F 3 "~" H 1400 4550 50  0001 C CNN
	1    1400 4550
	1    0    0    -1  
$EndComp
$Comp
L Device:R R402
U 1 1 5BD823F3
P 1400 5000
F 0 "R402" H 1470 5046 50  0000 L CNN
F 1 "11.8 k" H 1470 4955 50  0000 L CNN
F 2 "Resistor_SMD:R_0603_1608Metric" V 1330 5000 50  0001 C CNN
F 3 "~" H 1400 5000 50  0001 C CNN
	1    1400 5000
	1    0    0    -1  
$EndComp
Wire Wire Line
	1400 4700 1400 4775
Connection ~ 1400 4775
Wire Wire Line
	1400 4775 1400 4850
$Comp
L power:+12V #PWR0401
U 1 1 5BD829EA
P 1400 4400
F 0 "#PWR0401" H 1400 4250 50  0001 C CNN
F 1 "+12V" H 1415 4573 50  0000 C CNN
F 2 "" H 1400 4400 50  0001 C CNN
F 3 "" H 1400 4400 50  0001 C CNN
	1    1400 4400
	1    0    0    -1  
$EndComp
$Comp
L power:GND #PWR0402
U 1 1 5BD82A09
P 1400 5150
F 0 "#PWR0402" H 1400 4900 50  0001 C CNN
F 1 "GND" H 1405 4977 50  0000 C CNN
F 2 "" H 1400 5150 50  0001 C CNN
F 3 "" H 1400 5150 50  0001 C CNN
	1    1400 5150
	1    0    0    -1  
$EndComp
$Comp
L Regulator_Linear:MCP1754-3302E_SOT89 U402
U 1 1 5BD845D4
P 4925 3050
F 0 "U402" H 4925 3292 50  0000 C CNN
F 1 "MCP1754-3302E_SOT89" H 4925 3201 50  0000 C CNN
F 2 "Package_TO_SOT_SMD:SOT-89-3_Handsoldering" H 4925 3275 50  0001 C CNN
F 3 "http://ww1.microchip.com/downloads/en/DeviceDoc/20002276C.pdf" H 4925 3050 50  0001 C CNN
	1    4925 3050
	1    0    0    -1  
$EndComp
$Comp
L Device:C C404
U 1 1 5BD849C5
P 4125 3325
F 0 "C404" H 4240 3371 50  0000 L CNN
F 1 "1 uF" H 4240 3280 50  0000 L CNN
F 2 "Capacitor_SMD:C_0603_1608Metric" H 4163 3175 50  0001 C CNN
F 3 "~" H 4125 3325 50  0001 C CNN
	1    4125 3325
	1    0    0    -1  
$EndComp
$Comp
L power:GND #PWR0408
U 1 1 5BD84E8D
P 4125 3600
F 0 "#PWR0408" H 4125 3350 50  0001 C CNN
F 1 "GND" H 4130 3427 50  0000 C CNN
F 2 "" H 4125 3600 50  0001 C CNN
F 3 "" H 4125 3600 50  0001 C CNN
	1    4125 3600
	1    0    0    -1  
$EndComp
$Comp
L power:+6V #PWR0407
U 1 1 5BD84ECC
P 4125 2900
F 0 "#PWR0407" H 4125 2750 50  0001 C CNN
F 1 "+6V" H 4140 3073 50  0000 C CNN
F 2 "" H 4125 2900 50  0001 C CNN
F 3 "" H 4125 2900 50  0001 C CNN
	1    4125 2900
	1    0    0    -1  
$EndComp
$Comp
L power:+3.3V #PWR0410
U 1 1 5BD850D0
P 5500 2900
F 0 "#PWR0410" H 5500 2750 50  0001 C CNN
F 1 "+3.3V" H 5515 3073 50  0000 C CNN
F 2 "" H 5500 2900 50  0001 C CNN
F 3 "" H 5500 2900 50  0001 C CNN
	1    5500 2900
	1    0    0    -1  
$EndComp
$Comp
L power:GNDD #PWR0411
U 1 1 5BD851C9
P 6100 3600
F 0 "#PWR0411" H 6100 3350 50  0001 C CNN
F 1 "GNDD" H 6104 3445 50  0000 C CNN
F 2 "" H 6100 3600 50  0001 C CNN
F 3 "" H 6100 3600 50  0001 C CNN
	1    6100 3600
	1    0    0    -1  
$EndComp
Wire Wire Line
	6100 3600 6100 3475
Wire Wire Line
	4125 3475 4125 3600
Connection ~ 4125 3475
Wire Wire Line
	4925 3350 4925 3475
Wire Wire Line
	4925 3475 4125 3475
Wire Wire Line
	4125 2900 4125 3050
Wire Wire Line
	4625 3050 4125 3050
Connection ~ 4125 3050
Wire Wire Line
	4125 3050 4125 3175
Wire Wire Line
	5500 2900 5500 3050
Wire Wire Line
	5225 3050 5500 3050
Connection ~ 5500 3050
Wire Wire Line
	5500 3050 5500 3175
Text Notes 4675 3675 0    50   ~ 0
3.3 V digital
$Comp
L Regulator_Linear:MCP1754-3302E_SOT89 U403
U 1 1 5BD8BFD6
P 7550 3050
F 0 "U403" H 7550 3292 50  0000 C CNN
F 1 "MCP1754-3302E_SOT89" H 7550 3201 50  0000 C CNN
F 2 "Package_TO_SOT_SMD:SOT-89-3_Handsoldering" H 7550 3275 50  0001 C CNN
F 3 "http://ww1.microchip.com/downloads/en/DeviceDoc/20002276C.pdf" H 7550 3050 50  0001 C CNN
	1    7550 3050
	1    0    0    -1  
$EndComp
$Comp
L Device:C C408
U 1 1 5BD8BFDC
P 6750 3325
F 0 "C408" H 6865 3371 50  0000 L CNN
F 1 "1 uF" H 6865 3280 50  0000 L CNN
F 2 "Capacitor_SMD:C_0603_1608Metric" H 6788 3175 50  0001 C CNN
F 3 "~" H 6750 3325 50  0001 C CNN
	1    6750 3325
	1    0    0    -1  
$EndComp
$Comp
L Device:C C409
U 1 1 5BD8BFE2
P 8125 3325
F 0 "C409" H 8240 3371 50  0000 L CNN
F 1 "1 uF" H 8240 3280 50  0000 L CNN
F 2 "Capacitor_SMD:C_0603_1608Metric" H 8163 3175 50  0001 C CNN
F 3 "~" H 8125 3325 50  0001 C CNN
	1    8125 3325
	1    0    0    -1  
$EndComp
$Comp
L power:GND #PWR0415
U 1 1 5BD8BFE8
P 6750 3600
F 0 "#PWR0415" H 6750 3350 50  0001 C CNN
F 1 "GND" H 6755 3427 50  0000 C CNN
F 2 "" H 6750 3600 50  0001 C CNN
F 3 "" H 6750 3600 50  0001 C CNN
	1    6750 3600
	1    0    0    -1  
$EndComp
$Comp
L power:+6V #PWR0414
U 1 1 5BD8BFEE
P 6750 2900
F 0 "#PWR0414" H 6750 2750 50  0001 C CNN
F 1 "+6V" H 6765 3073 50  0000 C CNN
F 2 "" H 6750 2900 50  0001 C CNN
F 3 "" H 6750 2900 50  0001 C CNN
	1    6750 2900
	1    0    0    -1  
$EndComp
Wire Wire Line
	8900 3600 8900 3475
Wire Wire Line
	6750 3475 6750 3600
Connection ~ 6750 3475
Wire Wire Line
	7550 3350 7550 3475
Wire Wire Line
	7550 3475 6750 3475
Wire Wire Line
	6750 2900 6750 3050
Wire Wire Line
	7250 3050 6750 3050
Connection ~ 6750 3050
Wire Wire Line
	6750 3050 6750 3175
Wire Wire Line
	8125 2900 8125 3050
Wire Wire Line
	7850 3050 8125 3050
Connection ~ 8125 3050
Wire Wire Line
	8125 3050 8125 3175
Text Notes 7300 3675 0    50   ~ 0
3.3 V analog
$Comp
L power:+3.3VA #PWR0416
U 1 1 5BD8CECB
P 8125 2900
F 0 "#PWR0416" H 8125 2750 50  0001 C CNN
F 1 "+3.3VA" H 8140 3073 50  0000 C CNN
F 2 "" H 8125 2900 50  0001 C CNN
F 3 "" H 8125 2900 50  0001 C CNN
	1    8125 2900
	1    0    0    -1  
$EndComp
$Comp
L power:GNDA #PWR0417
U 1 1 5BD8CF24
P 8900 3600
F 0 "#PWR0417" H 8900 3350 50  0001 C CNN
F 1 "GNDA" H 8905 3427 50  0000 C CNN
F 2 "" H 8900 3600 50  0001 C CNN
F 3 "" H 8900 3600 50  0001 C CNN
	1    8900 3600
	1    0    0    -1  
$EndComp
$Comp
L Jumper:Jumper_2_Bridged JP401
U 1 1 5BD97B2B
P 5800 3475
F 0 "JP401" H 5700 3300 50  0000 C CNN
F 1 "Jumper_2_Bridged" H 5700 3375 50  0000 C CNN
F 2 "NetTie:NetTie-2_THT_Pad0.3mm" H 5800 3475 50  0001 C CNN
F 3 "~" H 5800 3475 50  0001 C CNN
	1    5800 3475
	1    0    0    -1  
$EndComp
Connection ~ 4925 3475
Wire Wire Line
	6000 3475 6100 3475
$Comp
L Jumper:Jumper_2_Bridged JP402
U 1 1 5BD99AB9
P 8600 3475
F 0 "JP402" H 8525 3250 50  0000 C CNN
F 1 "Jumper_2_Bridged" H 8475 3350 50  0000 C CNN
F 2 "NetTie:NetTie-2_THT_Pad0.3mm" H 8600 3475 50  0001 C CNN
F 3 "~" H 8600 3475 50  0001 C CNN
	1    8600 3475
	1    0    0    -1  
$EndComp
Connection ~ 7550 3475
Wire Wire Line
	8800 3475 8900 3475
$Comp
L Device:CP C401
U 1 1 5BDA9C60
P 1350 5950
F 0 "C401" H 1468 5996 50  0000 L CNN
F 1 "100 uF" H 1468 5905 50  0000 L CNN
F 2 "Capacitor_SMD:CP_Elec_6.3x7.7" H 1388 5800 50  0001 C CNN
F 3 "~" H 1350 5950 50  0001 C CNN
	1    1350 5950
	1    0    0    -1  
$EndComp
Wire Wire Line
	1350 5800 1350 5425
Wire Wire Line
	1350 5425 1850 5425
Wire Wire Line
	1350 6100 1350 6250
Wire Wire Line
	1350 6250 1850 6250
Connection ~ 1850 6250
Wire Wire Line
	1850 6250 1850 6100
$Comp
L Connector:TestPoint TP402
U 1 1 5BD6207A
P 5675 2950
F 0 "TP402" H 5733 3070 50  0000 L CNN
F 1 "TestPoint" H 5733 2979 50  0000 L CNN
F 2 "EarControllerParts:TestPoint-1206" H 5875 2950 50  0001 C CNN
F 3 "~" H 5875 2950 50  0001 C CNN
	1    5675 2950
	1    0    0    -1  
$EndComp
$Comp
L Connector:TestPoint TP403
U 1 1 5BD6244A
P 8300 2975
F 0 "TP403" H 8358 3095 50  0000 L CNN
F 1 "TestPoint" H 8358 3004 50  0000 L CNN
F 2 "EarControllerParts:TestPoint-1206" H 8500 2975 50  0001 C CNN
F 3 "~" H 8500 2975 50  0001 C CNN
	1    8300 2975
	1    0    0    -1  
$EndComp
Wire Wire Line
	5675 2950 5675 3050
Wire Wire Line
	5675 3050 5500 3050
Wire Wire Line
	8125 3050 8300 3050
Wire Wire Line
	8300 3050 8300 2975
$Comp
L Connector:TestPoint TP401
U 1 1 5BD41F6C
P 5300 5450
F 0 "TP401" H 5358 5570 50  0000 L CNN
F 1 "TestPoint" H 5358 5479 50  0000 L CNN
F 2 "EarControllerParts:TestPoint-1206" H 5500 5450 50  0001 C CNN
F 3 "~" H 5500 5450 50  0001 C CNN
	1    5300 5450
	1    0    0    -1  
$EndComp
Wire Wire Line
	5300 5450 5300 5525
$Comp
L Device:C C406
U 1 1 5BD5F672
P 5500 3325
F 0 "C406" H 5615 3371 50  0000 L CNN
F 1 "1 uF" H 5615 3280 50  0000 L CNN
F 2 "Capacitor_SMD:C_0603_1608Metric" H 5538 3175 50  0001 C CNN
F 3 "~" H 5500 3325 50  0001 C CNN
	1    5500 3325
	1    0    0    -1  
$EndComp
Wire Wire Line
	4925 3475 5500 3475
Connection ~ 5500 3475
Wire Wire Line
	5500 3475 5600 3475
Wire Wire Line
	7550 3475 8125 3475
Connection ~ 8125 3475
Wire Wire Line
	8125 3475 8400 3475
$EndSCHEMATC
